﻿quantity;idProduct;idWarehouse
900;1;1
300;2;2
600;3;3
1200;4;4
10;5;1
34;6;2
343;7;3
2323;8;4
3454;9;1
233;10;1
23434;11;2
6786;12;3
567;13;1
667;14;2
456456;15;3
10;16;4
12312;17;4
234;18;1
325425;19;1
234523;20;2
875;21;4
34;22;1
343;23;1
10;24;4
567;25;1
667;26;1
456456;27;2
5676;28;3
768978;29;1
7987686;30;2